^E:\ПОЛІТЕХ\АС\ЛАБА 6\LABA_6\LABA_6\X64\DEBUG\LABA_6.OBJ
E:\Політех\ас\лаба 6\LABA_6\X64\DEBUG\LABA_6.EXE
E:\Політех\ас\лаба 6\LABA_6\LABA_6\X64\DEBUG\LABA_6.ILK
E:\Політех\ас\лаба 6\LABA_6\X64\DEBUG\LABA_6.PDB
